HimanshuJain2024AAPS0780G/tb/stopwatch.vcd
$date
	Sun Feb  1 15:41:30 2026
$end
$version
	Icarus Verilog
$end
$timescale
	1s
$end
$scope module tb_stopwatch $end
$var wire 2 ! status [1:0] $end
$var wire 6 " seconds [5:0] $end
$var wire 8 # minutes [7:0] $end
$var reg 1 $ clk $end
$var reg 1 % reset $end
$var reg 1 & rst_n $end
$var reg 1 ' start $end
$var reg 1 ( stop $end
$scope module dut $end
$var wire 1 $ clk $end
$var wire 1 % reset $end
$var wire 1 & rst_n $end
$var wire 1 ' start $end
$var wire 1 ( stop $end
$var wire 2 ) status [1:0] $end
$var wire 6 * seconds [5:0] $end
$var wire 1 + sec_rollover $end
$var wire 8 , minutes [7:0] $end
$var wire 1 - enable $end
$scope module u_fsm $end
$var wire 1 $ clk $end
$var wire 1 % reset $end
$var wire 1 & rst_n $end
$var wire 1 ' start $end
$var wire 1 ( stop $end
$var parameter 2 . IDLE $end
$var parameter 2 / PAUSED $end
$var parameter 2 0 RUNNING $end
$var reg 1 - enable $end
$var reg 2 1 state [1:0] $end
$upscope $end
$scope module u_min $end
$var wire 1 $ clk $end
$var wire 1 & rst_n $end
$var wire 1 + enable $end
$var reg 8 2 minutes [7:0] $end
$upscope $end
$scope module u_sec $end
$var wire 1 $ clk $end
$var wire 1 - enable $end
$var wire 1 & rst_n $end
$var reg 1 + rollover $end
$var reg 6 3 seconds [5:0] $end
$upscope $end
$upscope $end
$upscope $end
$enddefinitions $end
$comment Show the parameter values. $end
$dumpall
b1 0
b10 /
b0 .
$end
#0
$dumpvars
b0 3
b0 2
b0 1
0-
b0 ,
0+
b0 *
b0 )
0(
0'
0&
0%
0$
b0 #
b0 "
b0 !
$end
#5
1$
#10
0$
#15
1$
#20
0$
1&
#25
1$
#30
0$
1'
#35
b1 !
b1 )
b1 1
1$
#40
0$
0'
#45
1-
1$
#50
0$
#55
b1 "
b1 *
b1 3
1$
#60
0$
#65
b10 "
b10 *
b10 3
1$
#70
0$
#75
b11 "
b11 *
b11 3
1$
#80
0$
#85
b100 "
b100 *
b100 3
1$
#90
0$
#95
b101 "
b101 *
b101 3
1$
#100
0$
#105
b110 "
b110 *
b110 3
1$
#110
0$
#115
b111 "
b111 *
b111 3
1$
#120
0$
#125
b1000 "
b1000 *
b1000 3
1$
#130
0$
#135
b1001 "
b1001 *
b1001 3
1$
#140
0$
#145
b1010 "
b1010 *
b1010 3
1$
#150
0$
#155
b1011 "
b1011 *
b1011 3
1$
#160
0$
#165
b1100 "
b1100 *
b1100 3
1$
#170
0$
#175
b1101 "
b1101 *
b1101 3
1$
#180
0$
#185
b1110 "
b1110 *
b1110 3
1$
#190
0$
#195
b1111 "
b1111 *
b1111 3
1$
#200
0$
#205
b10000 "
b10000 *
b10000 3
1$
#210
0$
#215
b10001 "
b10001 *
b10001 3
1$
#220
0$
#225
b10010 "
b10010 *
b10010 3
1$
#230
0$
#235
b10011 "
b10011 *
b10011 3
1$
#240
0$
1(
#245
b10100 "
b10100 *
b10100 3
b10 !
b10 )
b10 1
1$
#250
0$
0(
#255
0-
b10101 "
b10101 *
b10101 3
1$
#260
0$
#265
1$
#270
0$
#275
1$
#280
0$
#285
1$
#290
0$
#295
1$
#300
0$
#305
1$
#310
0$
#315
1$
#320
0$
#325
1$
#330
0$
#335
1$
#340
0$
#345
1$
#350
0$
1'
#355
b1 !
b1 )
b1 1
1$
#360
0$
0'
#365
1-
1$
#370
0$
#375
b10110 "
b10110 *
b10110 3
1$
#380
0$
#385
b10111 "
b10111 *
b10111 3
1$
#390
0$
#395
b11000 "
b11000 *
b11000 3
1$
#400
0$
#405
b11001 "
b11001 *
b11001 3
1$
#410
0$
#415
b11010 "
b11010 *
b11010 3
1$
#420
0$
#425
b11011 "
b11011 *
b11011 3
1$
#430
0$
#435
b11100 "
b11100 *
b11100 3
1$
#440
0$
#445
b11101 "
b11101 *
b11101 3
1$
#450
0$
#455
b11110 "
b11110 *
b11110 3
1$
#460
0$
#465
b11111 "
b11111 *
b11111 3
1$
#470
0$
#475
b100000 "
b100000 *
b100000 3
1$
#480
0$
#485
b100001 "
b100001 *
b100001 3
1$
#490
0$
#495
b100010 "
b100010 *
b100010 3
1$
#500
0$
#505
b100011 "
b100011 *
b100011 3
1$
#510
0$
#515
b100100 "
b100100 *
b100100 3
1$
#520
0$
#525
b100101 "
b100101 *
b100101 3
1$
#530
0$
#535
b100110 "
b100110 *
b100110 3
1$
#540
0$
#545
b100111 "
b100111 *
b100111 3
1$
#550
0$
#555
b101000 "
b101000 *
b101000 3
1$
#560
0$
1%
#565
b101001 "
b101001 *
b101001 3
b0 !
b0 )
b0 1
1$
#570
0$
0%
#575
0-
b101010 "
b101010 *
b101010 3
1$
